…
## See also

Other metadata functions:
[`gb_get_metadata()`](https://dieghernan.github.io/geobounds/reference/gb_get_metadata.md)

## Examples

``` r
all <- gb_get_max_adm_lvl()
library(dplyr)

# Countries with only one ADM level available.
all |>
  filter(maxBoundaryType == 1)
#> # A tibble: 21 × 2
#>    boundaryISO maxBoundaryType
#>    <chr>                 <int>
#>  1 AND                       1
#>  2 ARE                       1
#>  3 ATG                       1
#>  4 BHR                       1
#>  5 BRB                       1
#>  6 DMA                       1
#>  7 GRD                       1
#>  8 GRL                       1
#>  9 KNA                       1
#> 10 LBY                       1
#> # ℹ 11 more rows
…
